{
  "type": "service_account",
  "project_id": "dbrdarspirala3",
  "private_key_id": "d1020fc88192f4e283ac90490bfc5e68ca61748e",
  "private_key": "-----BEGIN PRIVATE KEY-----\nMIIEvwIBADANBgkqhkiG9w0BAQEFAASCBKkwggSlAgEAAoIBAQCjiOAqHP/Vp938\nCkfxUgCjjvu64CVT43iNQ5ttKDymK729azxGE/XBK6JcmNLGqb5VIuEoWG0+bzlv\n5zmGpE3k8izRWexS9zV2TtY8utRd0KqrlJkXk2EPjwPCk5+cBUJSLLMdb98oHO9N\nuRkww/hHB0WkJEuPNrBCzVdIYQj6H4mlXc1hZ5l4Ii7VHXt11OjmbbJi8yMOZ7ff\nMc6IpkkNx90rEuTdDVPzh24ObAc1ej/0iI8vELAkbgTWR//W7tP1XOZ5w8i+pTbx\nqUuGRH7qay4zgQHWdxTRaP5imNozDW24KHfa0luzsZl9/PKEsjRu9qAX04RUEHp4\nISpMpRl5AgMBAAECggEAQDIGgTGiEj6T6xEkHaypmIsT8U91B8HHPHj6JfcCG98W\n3Ckg34eNVNeqpDvPnfHbR/NpvJs9wyEJRI7Zq6uK8mFIy6PHm+f0Ii2fdvaGUA+O\nN82c7T7K/r8O5E5r/OSpnLV0WI1mZgo5vGJ5a4W6TDOkGGOxD5aRyZ9u8Hg6/GhN\nS2Dg88Ou4VFihgWjuKfxw3b+/BuBPhOVqCYFj82UDqFz/wkoO2kMe1dtcLWdOvps\nVXuSXI17A2hmOZJw57QPzmxGQPA5xQRe92Ia8efJCzkeK6HhxoZUVeja3aAHnXaB\nNB87rJ1eBWs36o3kBFSPnLkkjupTID09aofxVuGQ6wKBgQDO1XxKnuuZdqFMfty/\naXde4W/cwYciLilaLhrRE/8poJDgoq8HXMFAQ9KnY/ScBa1p2MyI/8xJu6Y/mzcB\nxEvOc7LPnnYGNQQ7j13AUfxARQMQlLHIuEPuK7x4KNFpGwYUql81+aI4R0Sj+VEv\nE7lE4dLFglQjPbp/Rzzwazac+wKBgQDKaH109iH/kWooc45yt7tgUkq+tTG84teu\nWdG67l/8VTuyaL60JRSB8AoG5u/naC9bPc1UiAATtYWiyou00X541jX4p12YNt3L\n75YRNkFRxsj/fyfFgA4ioS8n86WL/vnut9ENBbjbP1Dt4NZjGaNfxiGB84yLNV5t\njFYHsLuxGwKBgQDM5wfb8PZcMP74hlFwOy5ry5ADNaIHBY4n7bbZXCMTfSMpt2EI\nPSah4M7mz4o7qxAx5Poz2p3qicDYEI9865dh7pK9RjGMUqdfzdbFuTLaBMRVf8lk\nnM+HOsLaky1qH8B1ZpcuJKFFea0ReOOpbLPE/qbMziFGTFfe0ZcYYk5XUwKBgQCH\nkJBmY+vFdil5yluf7frrunIhZM5ZSj1WowXbg4h6QsPm7Ey97w/bL2An20jW3mrJ\nW41IjoYurSdCLxJ/GsjwOdiQH9iJ+EV5L5B9Gq+JC/DXXtzOZMQS4Y3p3kAEkdPn\n1OmJJUn4XmHf0PUGDsfjf5o1pV9+ZVJHYPTF1dL//QKBgQCTZS0TS6GmzzwUAFyZ\nQOpWXKgyd2Cq5HkYzI1q441unXO8QAL4uCQURjMJwDdoY2eKzGN41z/Zr21+fJ3+\nviGPHODQjIuhOwI0esA3TiZYdym1ohRGL+VEpxSGiyOSGYcZ9jfvZdf/wIekvPNz\n6iplhilzTL/O68tFoxb66fyrxg==\n-----END PRIVATE KEY-----\n",
  "client_email": "servisracun@dbrdarspirala3.iam.gserviceaccount.com",
  "client_id": "106772115384501579010",
  "auth_uri": "https://accounts.google.com/o/oauth2/auth",
  "token_uri": "https://oauth2.googleapis.com/token",
  "auth_provider_x509_cert_url": "https://www.googleapis.com/oauth2/v1/certs",
  "client_x509_cert_url": "https://www.googleapis.com/robot/v1/metadata/x509/servisracun%40dbrdarspirala3.iam.gserviceaccount.com"
}
